-------------------------------------------------------------------------------
Test set: charl.conversions.calculations.ConversionControllerTest
-------------------------------------------------------------------------------
Tests run: 8, Failures: 0, Errors: 0, Skipped: 0, Time elapsed: 0.061 s - in charl.conversions.calculations.ConversionControllerTest
